[gd_scene load_steps=2 format=2]

[ext_resource path="res://Running.tscn" type="PackedScene" id=1]

[node name="Spatial" type="Spatial"]

[node name="Running" parent="." instance=ExtResource( 1 )]

[node name="Camera" type="Camera" parent="Running"]
transform = Transform( 1, 0, 0, 0, 1, 0, 0, 0, 1, 0, 1.24183, 0.898355 )
