[gd_scene load_steps=5 format=2]

[ext_resource path="res://man.tscn" type="PackedScene" id=1]
[ext_resource path="res://WinPodium.gd" type="Script" id=2]
[ext_resource path="res://camerawin.gd" type="Script" id=3]

[sub_resource type="BoxShape" id=1]
extents = Vector3( 1, 0.105298, 0.275755 )

[node name="WinPodium" type="Spatial"]
script = ExtResource( 2 )

[node name="man" parent="." instance=ExtResource( 1 )]

[node name="Spatial" type="KinematicBody" parent="man"]
transform = Transform( 1, 0, 0, 0, 0.642787, 0.766044, 0, -0.766044, 0.642787, 0, 0.551954, 0 )
script = ExtResource( 3 )

[node name="Camera" type="Camera" parent="man/Spatial"]
transform = Transform( 0.00555556, 0, 0, 0, 0.00555556, 0, 0, 0, 0.00555556, -0.0297149, 0.414058, -0.575976 )
current = true
far = 8192.0

[node name="CollisionShape" type="CollisionShape" parent="man/Spatial"]
shape = SubResource( 1 )
disabled = true
