{
   "accessors" : [
      {
         "bufferView" : 0,
         "byteOffset" : 0,
         "componentType" : 5125,
         "count" : 4512,
         "type" : "SCALAR"
      },
      {
         "bufferView" : 1,
         "byteOffset" : 0,
         "componentType" : 5126,
         "count" : 4512,
         "type" : "VEC3"
      },
      {
         "bufferView" : 2,
         "byteOffset" : 0,
         "componentType" : 5126,
         "count" : 4512,
         "type" : "VEC3"
      },
      {
         "bufferView" : 3,
         "byteOffset" : 0,
         "componentType" : 5125,
         "count" : 144,
         "type" : "SCALAR"
      },
      {
         "bufferView" : 4,
         "byteOffset" : 0,
         "componentType" : 5126,
         "count" : 144,
         "type" : "VEC3"
      },
      {
         "bufferView" : 5,
         "byteOffset" : 0,
         "componentType" : 5126,
         "count" : 144,
         "type" : "VEC3"
      },
      {
         "bufferView" : 6,
         "byteOffset" : 0,
         "componentType" : 5125,
         "count" : 144,
         "type" : "SCALAR"
      },
      {
         "bufferView" : 7,
         "byteOffset" : 0,
         "componentType" : 5126,
         "count" : 144,
         "type" : "VEC3"
      },
      {
         "bufferView" : 8,
         "byteOffset" : 0,
         "componentType" : 5126,
         "count" : 144,
         "type" : "VEC3"
      },
      {
         "bufferView" : 9,
         "byteOffset" : 0,
         "componentType" : 5125,
         "count" : 45,
         "type" : "SCALAR"
      },
      {
         "bufferView" : 10,
         "byteOffset" : 0,
         "componentType" : 5126,
         "count" : 45,
         "type" : "VEC3"
      },
      {
         "bufferView" : 11,
         "byteOffset" : 0,
         "componentType" : 5126,
         "count" : 45,
         "type" : "VEC3"
      },
      {
         "bufferView" : 12,
         "byteOffset" : 0,
         "componentType" : 5125,
         "count" : 45,
         "type" : "SCALAR"
      },
      {
         "bufferView" : 13,
         "byteOffset" : 0,
         "componentType" : 5126,
         "count" : 45,
         "type" : "VEC3"
      },
      {
         "bufferView" : 14,
         "byteOffset" : 0,
         "componentType" : 5126,
         "count" : 45,
         "type" : "VEC3"
      },
      {
         "bufferView" : 15,
         "byteOffset" : 0,
         "componentType" : 5125,
         "count" : 144,
         "type" : "SCALAR"
      },
      {
         "bufferView" : 16,
         "byteOffset" : 0,
         "componentType" : 5126,
         "count" : 144,
         "type" : "VEC3"
      },
      {
         "bufferView" : 17,
         "byteOffset" : 0,
         "componentType" : 5126,
         "count" : 144,
         "type" : "VEC3"
      },
      {
         "bufferView" : 18,
         "byteOffset" : 0,
         "componentType" : 5125,
         "count" : 144,
         "type" : "SCALAR"
      },
      {
         "bufferView" : 19,
         "byteOffset" : 0,
         "componentType" : 5126,
         "count" : 144,
         "type" : "VEC3"
      },
      {
         "bufferView" : 20,
         "byteOffset" : 0,
         "componentType" : 5126,
         "count" : 144,
         "type" : "VEC3"
      },
      {
         "bufferView" : 21,
         "byteOffset" : 0,
         "componentType" : 5125,
         "count" : 45,
         "type" : "SCALAR"
      },
      {
         "bufferView" : 22,
         "byteOffset" : 0,
         "componentType" : 5126,
         "count" : 45,
         "type" : "VEC3"
      },
      {
         "bufferView" : 23,
         "byteOffset" : 0,
         "componentType" : 5126,
         "count" : 45,
         "type" : "VEC3"
      },
      {
         "bufferView" : 24,
         "byteOffset" : 0,
         "componentType" : 5125,
         "count" : 45,
         "type" : "SCALAR"
      },
      {
         "bufferView" : 25,
         "byteOffset" : 0,
         "componentType" : 5126,
         "count" : 45,
         "type" : "VEC3"
      },
      {
         "bufferView" : 26,
         "byteOffset" : 0,
         "componentType" : 5126,
         "count" : 45,
         "type" : "VEC3"
      }
   ],
   "asset" : {
      "extras" : {
         "GOOGLE_processor_version" : 310838669
      },
      "version" : "2.0"
   },
   "bufferViews" : [
      {
         "buffer" : 0,
         "byteLength" : 18048,
         "byteOffset" : 0
      },
      {
         "buffer" : 0,
         "byteLength" : 54144,
         "byteOffset" : 18048
      },
      {
         "buffer" : 0,
         "byteLength" : 54144,
         "byteOffset" : 72192
      },
      {
         "buffer" : 0,
         "byteLength" : 576,
         "byteOffset" : 126336
      },
      {
         "buffer" : 0,
         "byteLength" : 1728,
         "byteOffset" : 126912
      },
      {
         "buffer" : 0,
         "byteLength" : 1728,
         "byteOffset" : 128640
      },
      {
         "buffer" : 0,
         "byteLength" : 576,
         "byteOffset" : 130368
      },
      {
         "buffer" : 0,
         "byteLength" : 1728,
         "byteOffset" : 130944
      },
      {
         "buffer" : 0,
         "byteLength" : 1728,
         "byteOffset" : 132672
      },
      {
         "buffer" : 0,
         "byteLength" : 180,
         "byteOffset" : 134400
      },
      {
         "buffer" : 0,
         "byteLength" : 540,
         "byteOffset" : 134580
      },
      {
         "buffer" : 0,
         "byteLength" : 540,
         "byteOffset" : 135120
      },
      {
         "buffer" : 0,
         "byteLength" : 180,
         "byteOffset" : 135660
      },
      {
         "buffer" : 0,
         "byteLength" : 540,
         "byteOffset" : 135840
      },
      {
         "buffer" : 0,
         "byteLength" : 540,
         "byteOffset" : 136380
      },
      {
         "buffer" : 0,
         "byteLength" : 576,
         "byteOffset" : 136920
      },
      {
         "buffer" : 0,
         "byteLength" : 1728,
         "byteOffset" : 137496
      },
      {
         "buffer" : 0,
         "byteLength" : 1728,
         "byteOffset" : 139224
      },
      {
         "buffer" : 0,
         "byteLength" : 576,
         "byteOffset" : 140952
      },
      {
         "buffer" : 0,
         "byteLength" : 1728,
         "byteOffset" : 141528
      },
      {
         "buffer" : 0,
         "byteLength" : 1728,
         "byteOffset" : 143256
      },
      {
         "buffer" : 0,
         "byteLength" : 180,
         "byteOffset" : 144984
      },
      {
         "buffer" : 0,
         "byteLength" : 540,
         "byteOffset" : 145164
      },
      {
         "buffer" : 0,
         "byteLength" : 540,
         "byteOffset" : 145704
      },
      {
         "buffer" : 0,
         "byteLength" : 180,
         "byteOffset" : 146244
      },
      {
         "buffer" : 0,
         "byteLength" : 540,
         "byteOffset" : 146424
      },
      {
         "buffer" : 0,
         "byteLength" : 540,
         "byteOffset" : 146964
      }
   ],
   "buffers" : [
      {
         "byteLength" : 147504,
         "uri" : "model.bin"
      }
   ],
   "cameras" : [
      {
         "perspective" : {
            "yfov" : 0.7853981633974483,
            "znear" : 0.1000000014901161
         },
         "type" : "perspective"
      }
   ],
   "extensions" : {
      "KHR_lights_punctual" : {
         "lights" : [
            {
               "color" : [ 1, 0.9333333333333333, 0.8666666666666667 ],
               "intensity" : 0.5249999761581421,
               "name" : "headLight",
               "type" : "directional"
            },
            {
               "color" : [ 1, 0.9333333333333333, 0.8666666666666667 ],
               "intensity" : 0.682499943971635,
               "name" : "keyLight",
               "type" : "directional"
            }
         ]
      }
   },
   "extensionsUsed" : [ "GOOGLE_backgrounds", "GOOGLE_camera_settings", "KHR_lights_punctual" ],
   "extras" : {
      "GOOGLE_initial_camera_motion" : {
         "motionPath" : "FULL_ROTATION"
      },
      "GOOGLE_lighting_rig" : {
         "disableShadows" : false
      }
   },
   "materials" : [
      {
         "alphaCutoff" : 0.5,
         "alphaMode" : "OPAQUE",
         "doubleSided" : false,
         "emissiveFactor" : [ 0, 0, 0 ],
         "name" : "Color_B05",
         "pbrMetallicRoughness" : {
            "baseColorFactor" : [ 1, 0.8470588326454163, 0.800000011920929, 1 ],
            "metallicFactor" : 1,
            "roughnessFactor" : 1
         }
      },
      {
         "alphaCutoff" : 0.5,
         "alphaMode" : "OPAQUE",
         "doubleSided" : false,
         "emissiveFactor" : [ 0, 0, 0 ],
         "name" : "Color_007",
         "pbrMetallicRoughness" : {
            "baseColorFactor" : [ 0.2274509966373444, 0.2274509966373444, 0.2274509966373444, 1 ],
            "metallicFactor" : 1,
            "roughnessFactor" : 1
         }
      },
      {
         "alphaCutoff" : 0.5,
         "alphaMode" : "OPAQUE",
         "doubleSided" : false,
         "emissiveFactor" : [ 0, 0, 0 ],
         "name" : "Color_009",
         "pbrMetallicRoughness" : {
            "baseColorFactor" : [ 0, 0, 0, 1 ],
            "metallicFactor" : 1,
            "roughnessFactor" : 1
         }
      }
   ],
   "meshes" : [
      {
         "primitives" : [
            {
               "attributes" : {
                  "NORMAL" : 2,
                  "POSITION" : 1
               },
               "indices" : 0,
               "material" : 0,
               "mode" : 4
            }
         ]
      },
      {
         "primitives" : [
            {
               "attributes" : {
                  "NORMAL" : 5,
                  "POSITION" : 4
               },
               "indices" : 3,
               "material" : 0,
               "mode" : 4
            }
         ]
      },
      {
         "primitives" : [
            {
               "attributes" : {
                  "NORMAL" : 8,
                  "POSITION" : 7
               },
               "indices" : 6,
               "material" : 1,
               "mode" : 4
            }
         ]
      },
      {
         "primitives" : [
            {
               "attributes" : {
                  "NORMAL" : 11,
                  "POSITION" : 10
               },
               "indices" : 9,
               "material" : 0,
               "mode" : 4
            }
         ]
      },
      {
         "primitives" : [
            {
               "attributes" : {
                  "NORMAL" : 14,
                  "POSITION" : 13
               },
               "indices" : 12,
               "material" : 2,
               "mode" : 4
            }
         ]
      },
      {
         "primitives" : [
            {
               "attributes" : {
                  "NORMAL" : 17,
                  "POSITION" : 16
               },
               "indices" : 15,
               "material" : 0,
               "mode" : 4
            }
         ]
      },
      {
         "primitives" : [
            {
               "attributes" : {
                  "NORMAL" : 20,
                  "POSITION" : 19
               },
               "indices" : 18,
               "material" : 1,
               "mode" : 4
            }
         ]
      },
      {
         "primitives" : [
            {
               "attributes" : {
                  "NORMAL" : 23,
                  "POSITION" : 22
               },
               "indices" : 21,
               "material" : 0,
               "mode" : 4
            }
         ]
      },
      {
         "primitives" : [
            {
               "attributes" : {
                  "NORMAL" : 26,
                  "POSITION" : 25
               },
               "indices" : 24,
               "material" : 2,
               "mode" : 4
            }
         ]
      }
   ],
   "nodes" : [
      {
         "children" : [ 1, 2, 3 ],
         "name" : "RootNode",
         "rotation" : [ 0, 0, 0, 1 ],
         "scale" : [ 1, 1, 1 ],
         "translation" : [ 0, 0, 0 ]
      },
      {
         "name" : "Light",
         "rotation" : [
            0.1690757056862663,
            0.755880374520583,
            -0.2721713326537732,
            0.5709474851882469
         ],
         "scale" : [ 1.000000076293945, 1, 1 ],
         "translation" : [ 4.076245422363281, 5.9038623046875, -1.00545394897461 ]
      },
      {
         "name" : "Camera",
         "rotation" : [
            -0.2125572787003112,
            0.9047969933360648,
            -0.08438936465261368,
            0.3592217132288407
         ],
         "scale" : [ 0.9999999999999998, 1.000000076293945, 0.9999999237060547 ],
         "translation" : [ 7.3588916015625, 4.958309326171874, 6.925791015625001 ]
      },
      {
         "children" : [ 4, 5, 7, 10, 13, 16 ],
         "name" : "SketchUp",
         "rotation" : [ -0.7071068387877038, 0, 0, 0.7071067235853865 ],
         "scale" : [ 0.02539999961853028, 0.02539999961853028, 0.02539999961853028 ],
         "translation" : [ 0, 0, 0 ]
      },
      {
         "name" : "skp_camera_Last_Saved_SketchUp_View",
         "rotation" : [
            0.2073570519039847,
            0.6760200252300613,
            0.6266370646600613,
            0.3276064219575948
         ],
         "scale" : [ 1, 1, 1.00000011920929 ],
         "translation" : [ 8391.232421875, -4857.323730468749, 1916.158203125 ]
      },
      {
         "children" : [ 6 ],
         "name" : "instance_0",
         "rotation" : [
            0.2520888292217787,
            0.6490086904558863,
            -0.1872190502016273,
            0.692955964788477
         ],
         "scale" : [ 0.9999999403953551, 1.00000011920929, 1.00000011920929 ],
         "translation" : [ -738.7964477539064, 985.5846557617188, 2479.17431640625 ]
      },
      {
         "mesh" : 0,
         "rotation" : [ 0, 0, 0, 1 ],
         "scale" : [ 1, 1, 1 ],
         "translation" : [ 0, 0, 0 ]
      },
      {
         "children" : [ 8, 9 ],
         "name" : "instance_0.001",
         "rotation" : [
            0.2520888292217787,
            0.6490086904558863,
            -0.1872190502016273,
            0.692955964788477
         ],
         "scale" : [ 0.9999999403953551, 1.00000011920929, 1.00000011920929 ],
         "translation" : [ -738.7964477539064, 985.5846557617188, 2479.17431640625 ]
      },
      {
         "mesh" : 1,
         "rotation" : [ 0, 0, 0, 1 ],
         "scale" : [ 1, 1, 1 ],
         "translation" : [ 0, 0, 0 ]
      },
      {
         "mesh" : 2,
         "rotation" : [ 0, 0, 0, 1 ],
         "scale" : [ 1, 1, 1 ],
         "translation" : [ 0, 0, 0 ]
      },
      {
         "children" : [ 11, 12 ],
         "name" : "instance_0.002",
         "rotation" : [
            0.2520888292217787,
            0.6490086904558863,
            -0.1872190502016273,
            0.692955964788477
         ],
         "scale" : [ 0.9999999403953551, 1.00000011920929, 1.00000011920929 ],
         "translation" : [ -738.7964477539064, 985.5846557617188, 2479.17431640625 ]
      },
      {
         "mesh" : 3,
         "rotation" : [ 0, 0, 0, 1 ],
         "scale" : [ 1, 1, 1 ],
         "translation" : [ 0, 0, 0 ]
      },
      {
         "mesh" : 4,
         "rotation" : [ 0, 0, 0, 1 ],
         "scale" : [ 1, 1, 1 ],
         "translation" : [ 0, 0, 0 ]
      },
      {
         "children" : [ 14, 15 ],
         "name" : "instance_0.003",
         "rotation" : [
            0.2520888292217787,
            0.6490086904558863,
            -0.1872190502016273,
            0.692955964788477
         ],
         "scale" : [ 0.9999999403953551, 1.00000011920929, 1.00000011920929 ],
         "translation" : [ -738.7964477539064, 985.5846557617188, 2479.17431640625 ]
      },
      {
         "mesh" : 5,
         "rotation" : [ 0, 0, 0, 1 ],
         "scale" : [ 1, 1, 1 ],
         "translation" : [ 0, 0, 0 ]
      },
      {
         "mesh" : 6,
         "rotation" : [ 0, 0, 0, 1 ],
         "scale" : [ 1, 1, 1 ],
         "translation" : [ 0, 0, 0 ]
      },
      {
         "children" : [ 17, 18 ],
         "name" : "instance_0.004",
         "rotation" : [
            0.2520888292217787,
            0.6490086904558863,
            -0.1872190502016273,
            0.692955964788477
         ],
         "scale" : [ 0.9999999403953551, 1.00000011920929, 1.00000011920929 ],
         "translation" : [ -738.7964477539064, 985.5846557617188, 2479.17431640625 ]
      },
      {
         "mesh" : 7,
         "rotation" : [ 0, 0, 0, 1 ],
         "scale" : [ 1, 1, 1 ],
         "translation" : [ 0, 0, 0 ]
      },
      {
         "mesh" : 8,
         "rotation" : [ 0, 0, 0, 1 ],
         "scale" : [ 1, 1, 1 ],
         "translation" : [ 0, 0, 0 ]
      },
      {
         "children" : [ 20 ]
      },
      {
         "children" : [ 21 ],
         "extras" : {
            "isTransformNode" : 1
         },
         "translation" : [ 2.70428535587594, 24.51435366105449, -40.77065364930105 ]
      },
      {
         "children" : [ 0 ],
         "translation" : [ -2.70428535587594, -24.51435366105449, 40.77065364930105 ]
      },
      {
         "camera" : 0,
         "children" : [ 23 ],
         "rotation" : [
            -0.0424035193361117,
            0.4316078510033706,
            0.02031636219030518,
            0.9008350847560926
         ],
         "translation" : [ 98.13639223246335, 36.06702894995, 35.96477092829694 ]
      },
      {
         "extensions" : {
            "KHR_lights_punctual" : {
               "light" : 0
            }
         },
         "extras" : {
            "isHeadLight" : 1
         },
         "name" : "headLightNode",
         "translation" : [ -53.92377229017654, 26.96188614508827, 26.96188614508827 ]
      },
      {
         "extensions" : {
            "KHR_lights_punctual" : {
               "light" : 1
            }
         },
         "extras" : {
            "isKeyLight" : 1
         },
         "name" : "keyLightNode",
         "rotation" : [ -0.7505326882858236, -0.3752663441429118, 0, 0.5439447166468927 ],
         "scale" : [ 0, 0, 54.4630100130783 ],
         "translation" : [ -47.90677790507917, 128.0626451267914, -95.30078206405156 ]
      }
   ],
   "scene" : 0,
   "scenes" : [
      {
         "extensions" : {
            "GOOGLE_backgrounds" : {
               "color" : [ 0.9803921568627451, 0.9803921568627451, 0.9803921568627451 ]
            },
            "GOOGLE_camera_settings" : {
               "mode" : "movableOrbit",
               "pivot" : [ 2.701673825835421, 24.51307822732443, -40.76671377874347 ]
            }
         },
         "extras" : {
            "GOOGLE_camera_index" : {
               "cameraIndex" : 0,
               "nodeIndex" : 22
            },
            "GOOGLE_geometry_data" : {
               "stats" : {
                  "centroid" : [ 6.556232107999139, 19.13662510063477, -40.83777205097326 ],
                  "radius" : 53.92377229017654,
                  "stdev" : 25.45117355921941
               },
               "visualCenterPoint" : [ 2.70428535587594, 24.51435366105449, -40.77065364930105 ]
            }
         },
         "nodes" : [ 19, 22, 24 ]
      }
   ]
}
